<svg width="14" height="12" viewBox="0 0 14 12" xmlns="http://www.w3.org/2000/svg">
    <path d="M12.6.4H1.4C.63.4 0 1.03 0 1.8v8.4c0 .77.63 1.4 1.4 1.4h11.2c.77 0 1.4-.63 1.4-1.4V1.8c0-.77-.63-1.4-1.4-1.4zm0 2.8L7 6.7 1.4 3.2V1.8L7 5.3l5.6-3.5v1.4z" fill="#616E7C" fill-rule="evenodd"/>
</svg>
