<svg width="24" height="24" viewBox="0 0 24 24" xmlns="http://www.w3.org/2000/svg">
    <path d="M11.915 0c6.58 0 11.915 5.335 11.915 11.915 0 6.58-5.334 11.915-11.915 11.915C5.335 23.83 0 18.496 0 11.915 0 5.335 5.335 0 11.915 0zm3.844 9.027c-1.508 0-2.187.85-2.57 1.423V9.239h-2.846c.013.238.018 1.083.02 2.155v.774l-.001.269v.55l-.002.556a1554.32 1554.32 0 0 1-.016 4.152v.103h2.845V13.02c0-.254 0-.51.085-.7.213-.51.68-1.041 1.466-1.041 1.04 0 1.444.786 1.444 1.933v4.566h2.846v-4.906c0-2.634-1.402-3.844-3.27-3.844zm-6.987.19H5.926v8.56h2.846v-8.56zM7.37 5.098c-.977 0-1.614.638-1.614 1.487 0 .828.616 1.487 1.571 1.487h.022c.998 0 1.614-.659 1.614-1.487-.021-.85-.637-1.487-1.593-1.487z" fill="#F5F7FA" fill-rule="evenodd"/>
</svg>
