<svg width="24" height="24" viewBox="0 0 24 24" xmlns="http://www.w3.org/2000/svg">
    <path d="M11.915 0c6.58 0 11.915 5.335 11.915 11.915 0 6.58-5.334 11.915-11.915 11.915C5.335 23.83 0 18.496 0 11.915 0 5.335 5.335 0 11.915 0zm3.037 7.242a2.846 2.846 0 0 0-2.846 2.846c0 .234.021.447.064.659a8.118 8.118 0 0 1-5.862-2.974 2.749 2.749 0 0 0-.382 1.423c0 .999.51 1.87 1.274 2.38a2.952 2.952 0 0 1-1.296-.362v.043c0 1.38.977 2.527 2.294 2.782a2.856 2.856 0 0 1-.743.106c-.191 0-.361-.021-.531-.042a2.86 2.86 0 0 0 2.655 1.975 5.728 5.728 0 0 1-3.547 1.21c-.234 0-.446-.02-.68-.042a8.065 8.065 0 0 0 4.375 1.274c5.246 0 8.114-4.332 8.114-8.113v-.361c.51-.404.998-.913 1.38-1.487a5.335 5.335 0 0 1-1.635.446 2.872 2.872 0 0 0 1.253-1.571 6.022 6.022 0 0 1-1.805.7 2.817 2.817 0 0 0-2.082-.892z" fill="#F5F7FA" fill-rule="evenodd"/>
</svg>
